example_place_holder = {
	# province it starts in
	start = 420
	
	# date built in real life (so anything built during game time will be there if you start a game after that date)
	date = 3069.01.01
	
	#time to build
	time = {
		months = 0
	}
	
	#how much to build one
	build_cost = 0
	
	#can we move it?
	can_be_moved = no
	
	#time to move the project one unit of distance, in days
	move_days_per_unit_distance = 10
	
	#tier that the project starts at when first placed in the game (be that at game start or when built by a country as the game progresses)
	starting_tier = 2
	
	#project type
	type = monument

	#can we build it?
	build_trigger = {
		OR = {		
			AND = {
				religion = orthodox
				has_owner_religion = yes
			}
			AND = {
				religion = coptic
				has_owner_religion = yes
			}			
			AND = {
				religion_group = muslim
				has_owner_religion = yes
			}
			AND = {
				religion = catholic
				has_owner_religion = yes
			}
		}			
	}

	#what to do when it's built
	on_built = {
		if = {
			limit = { 
				has_global_flag = example_place_holder_now_mosque
			}
			show_ambient_object = example_place_holder_minarets
		}
		else = {
			show_ambient_object = example_place_holder
		}
	}
	
	#what to do when it's destroyed
	on_destroyed = {
		hide_ambient_object = example_place_holder_minarets
		hide_ambient_object = example_place_holder
	}

	#can our country use it?
	can_use_modifiers_trigger = {
		OR = {		
			AND = {
				religion = orthodox
				has_owner_religion = yes
			}
			AND = {
				religion = coptic
				has_owner_religion = yes
			}			
			AND= {
				religion_group = muslim
				has_owner_religion = yes
			}
			AND = {
				religion = catholic
				has_owner_religion = yes
			}
		}		
	}

	#can our country upgrade it?
	can_upgrade_trigger = {
		OR = {		
			AND = {
				religion = orthodox
				has_owner_religion = yes
			}
			AND = {
				religion = coptic
				has_owner_religion = yes
			}			
			AND= {
				religion_group = muslim
				has_owner_religion = yes
			}
			AND = {
				religion = catholic
				has_owner_religion = yes
			}
		}		
	}

	#can our country keep it or is it destroyed when we get hold of it?
	keep_trigger = {
	}

	#tier data
	tier_0 = {
		#time to upgrade to this level (0 for tier 0)
		upgrade_time = {
			months = 0
		}

		#cost to upgrade to this level (0 for tier 0)
		cost_to_upgrade = {
			factor = 0
		}

		#what modifiers are added to the province when we have this project here on this tier
		province_modifiers = {
		}

		#what modifiers are added to the provinces in the map area when we have this project here on this tier
		area_modifier = {
		}

		#what modifiers are added to the country when we have this project here on this tier
		country_modifiers = {
		}

		#what effects happen when this tier is achieved
		on_upgraded = {
		}
	}

	tier_1 = {
		#time to upgrade to this level (0 for tier 0)
		upgrade_time = {
			months = 120
		}

		#cost to upgrade to this level (0 for tier 0)
		cost_to_upgrade = {
			factor = 1000
		}

		#what modifiers are added to the province when we have this project here on this tier
		province_modifiers = {
		}

		#what modifiers are added to the provinces in the map area when we have this project here on this tier
		area_modifier = {
		}

		#what modifiers are added to the country when we have this project here on this tier
		country_modifiers = {
			tolerance_own = 0.25
			tolerance_heretic = 0.25
		}

		#what effects happen when this tier is achieved
		on_upgraded = {
		}
	}

	tier_2 = {
		#time to upgrade to this level (0 for tier 0)
		upgrade_time = {
			months = 240
		}

		#cost to upgrade to this level (0 for tier 0)
		cost_to_upgrade = {
			factor = 2500
		}

		#what modifiers are added to the province when we have this project here on this tier
		province_modifiers = {
		}

		#what modifiers are added to the provinces in the map area when we have this project here on this tier
		area_modifier = {
		}

		#what modifiers are added to the country when we have this project here on this tier
		country_modifiers = {
			tolerance_own = 0.5
			tolerance_heretic = 0.5
			monthly_piety = 0.001
			yearly_patriarch_authority = 0.002
			papal_influence = 0.5
		}

		#what effects happen when this tier is achieved
		on_upgraded = {
			owner = {
				add_estate_loyalty = {
					estate = estate_church
					loyalty = 5
				}
			}
		}
	}

	tier_3 = {
		#time to upgrade to this level (0 for tier 0)
		upgrade_time = {
			months = 480
		}

		#cost to upgrade to this level (0 for tier 0)
		cost_to_upgrade = {
			factor = 5000
		}

		#what modifiers are added to the province when we have this project here on this tier
		province_modifiers = {
		}

		#what modifiers are added to the provinces in the map area when we have this project here on this tier
		area_modifier = {
		}

		#what modifiers are added to the country when we have this project here on this tier
		country_modifiers = {
			tolerance_own = 1
			tolerance_heretic = 1
			monthly_piety = 0.002
			yearly_patriarch_authority = 0.005
			papal_influence = 1
		}

		#what effects happen when this tier is achieved
		on_upgraded = {
			owner = {
				add_estate_loyalty = {
					estate = estate_church
					loyalty = 10
				}
			}
		}
	}
}