##################################################################################################
# scriptable and usable for event-system below.
##################################################################################################

#Generic Military Mission Rewards:
