#########################################################################
# OPINION MODIFIERS
##########################################################################

##########################################################################
# HARD - DO NOT REMOVE OR RENAME ANY OF THESE
##########################################################################

##############
# FIXED STATE
##############

opinion_placeholder = {
	opinion = 100
	max = 100
	years = 100
	yearly_decay = 1
}
